[gd_scene load_steps=5 format=2]

[ext_resource path="res://dodge_assets/fonts/Xolonium-Regular.ttf" type="DynamicFontData" id=1]
[ext_resource path="res://UI/Nombre.gd" type="Script" id=2]

[sub_resource type="DynamicFont" id=1]
size = 30
font_data = ExtResource( 1 )

[sub_resource type="DynamicFont" id=2]
font_data = ExtResource( 1 )

[node name="Nombre" type="PanelContainer"]
anchor_left = 0.5
anchor_top = 0.5
anchor_right = 0.5
anchor_bottom = 0.5
margin_left = -167.0
margin_top = -101.0
margin_right = 167.0
margin_bottom = 101.0
size_flags_vertical = 7
script = ExtResource( 2 )
__meta__ = {
"_edit_use_anchors_": false
}

[node name="GridContainer" type="GridContainer" parent="."]
margin_left = 7.0
margin_top = 7.0
margin_right = 386.0
margin_bottom = 195.0
size_flags_horizontal = 7
size_flags_vertical = 7

[node name="Label" type="Label" parent="GridContainer"]
margin_right = 379.0
margin_bottom = 77.0
size_flags_horizontal = 7
custom_fonts/font = SubResource( 1 )
text = "Bienvenido Colonizador!
Cual es tu nombre?"
align = 1

[node name="LineEdit" type="LineEdit" parent="GridContainer"]
margin_top = 81.0
margin_right = 379.0
margin_bottom = 158.0
size_flags_horizontal = 5
size_flags_vertical = 7
align = 1

[node name="Button" type="Button" parent="GridContainer"]
margin_top = 162.0
margin_right = 379.0
margin_bottom = 188.0
size_flags_vertical = 0
custom_fonts/font = SubResource( 2 )
text = "Aceptar"

[connection signal="pressed" from="GridContainer/Button" to="." method="_on_Button_pressed"]
